<?xml version="1.0" encoding="UTF-8" standalone="no"?>
<!-- Created with Inkscape (http://www.inkscape.org/) -->

<svg
   xmlns:dc="http://purl.org/dc/elements/1.1/"
   xmlns:cc="http://creativecommons.org/ns#"
   xmlns:rdf="http://www.w3.org/1999/02/22-rdf-syntax-ns#"
   xmlns:svg="http://www.w3.org/2000/svg"
   xmlns="http://www.w3.org/2000/svg"
   xmlns:sodipodi="http://sodipodi.sourceforge.net/DTD/sodipodi-0.dtd"
   xmlns:inkscape="http://www.inkscape.org/namespaces/inkscape"
   version="1.1"
   id="svg2"
   width="72"
   height="72"
   viewBox="0 0 72 72"
   sodipodi:docname="partial.svg"
   inkscape:version="0.92.5 (2060ec1f9f, 2020-04-08)">
  <metadata
     id="metadata8">
    <rdf:RDF>
      <cc:Work
         rdf:about="">
        <dc:format>image/svg+xml</dc:format>
        <dc:type
           rdf:resource="http://purl.org/dc/dcmitype/StillImage" />
        <dc:title></dc:title>
      </cc:Work>
    </rdf:RDF>
  </metadata>
  <defs
     id="defs6" />
  <sodipodi:namedview
     pagecolor="#ffffff"
     bordercolor="#666666"
     borderopacity="1"
     objecttolerance="10"
     gridtolerance="10"
     guidetolerance="10"
     inkscape:pageopacity="0"
     inkscape:pageshadow="2"
     inkscape:window-width="1848"
     inkscape:window-height="1053"
     id="namedview4"
     showgrid="false"
     inkscape:zoom="3.2777778"
     inkscape:cx="-6.4067797"
     inkscape:cy="36"
     inkscape:window-x="72"
     inkscape:window-y="27"
     inkscape:window-maximized="1"
     inkscape:current-layer="svg2" />
  <path
     inkscape:connector-curvature="0"
     id="path4751"
     d="m 31.499998,65 c -3.265566,-3.3 -6.558435,-6 -7.317487,-6 -0.759051,0 -2.641179,1.35 -4.182509,3 -3.46098,3.704987 -7.1929,3.898017 -10.54546,0.545455 C 6.101982,59.192892 6.295012,55.460976 10.000002,52 c 1.65,-1.541331 3,-3.423462 3,-4.182513 0,-0.759052 -2.7,-4.051921 -6,-7.317487 -3.3,-3.265566 -6,-6.315774 -6,-6.778239 0,-1.529336 7.45357,-9.864937 10.03088,-11.217908 3.26102,-1.711882 5.6044,-0.440877 6.47225,3.510421 0.36269,1.651298 1.51879,3.462275 2.56912,4.024393 4.35175,2.328988 12.295401,-5.614663 9.966413,-9.966416 -0.562118,-1.050328 -2.373095,-2.20643 -4.024393,-2.569116 -3.9513,-0.867851 -5.2223,-3.211232 -3.51042,-6.472247 1.35297,-2.5773162 9.688571,-10.03088802 11.217907,-10.03088802 0.462465,0 3.512673,2.69999992 6.778239,5.99999992 C 43.765564,10.3 47.058433,13 47.817485,13 48.576536,13 50.458667,11.65 51.999998,9.9999999 55.460974,6.295013 59.19289,6.1019829 62.545453,9.4545454 65.898015,12.807108 65.704985,16.539024 61.999998,20 c -1.65,1.541331 -3,3.423462 -3,4.182513 0,0.759052 2.7,4.051921 6,7.317487 3.3,3.265566 6,6.315774 6,6.778239 0,1.529336 -7.453572,9.864937 -10.030888,11.217908 -3.261015,1.711882 -5.604396,0.440877 -6.472247,-3.510421 -0.362686,-1.651298 -1.518788,-3.462275 -2.569116,-4.024393 -4.351753,-2.328988 -12.295404,5.614663 -9.966416,9.966416 0.562118,1.050328 2.373095,2.20643 4.024393,2.569116 3.951298,0.867851 5.222303,3.211232 3.510421,6.472247 C 48.143174,63.546428 39.807573,71 38.278237,71 37.815772,71 34.765564,68.3 31.499998,65 Z"
     style="fill:#ff5400;fill-opacity:1" />
</svg>
